87160 739328 509
880696 409184 525
548226 536380 452
489013 425278 444
214317 247655 443
593672 261976 470
747915 655434 504
637914 564928 509
520278 538411 408
373187 592090 470
241375 311987 407
111262 229856 386
77673 672060 509
893811 720092 525
280580 196826 443
629548 927909 525
746202 437402 509
270165 802894 509
641732 305878 509
928207 279383 525
833582 196796 509
358583 663284 509
667845 521027 509
316147 140999 443
326256 685720 509
954433 327067 525
10659 812142 509
606766 71683 470
676584 996835 525
411510 971790 525
653790 849037 525
455144 949791 525
211893 467295 449
198645 113628 383
236530 931446 525
178116 163596 352
1255 239230 443
864948 77029 525
307098 163517 443
730865 227448 509
942846 901700 507
91773 563637 470
392054 162242 443
683549 444157 509
963229 304815 525
247698 244195 350
785468 536251 509
14782 425845 449
577287 118005 470
795124 23797 509
668862 440568 509
315759 321609 371
219098 706113 509
707538 554275 509
254224 75679 443
638148 960362 525
405427 273511 441
707548 149158 509
895702 267165 525
800990 969997 525
588372 655545 509
328831 124894 443
400891 980366 525
498057 910814 525
598904 254458 470
243668 687499 509
751627 249169 509
985486 900393 507
87363 745819 509
552236 981615 525
700614 693377 367
616355 911867 525
893502 391034 525
956618 510182 525
337065 581052 470
995015 136258 525
168000 285360 443
430090 649899 509
698802 319765 509
430082 549984 470
593039 180408 470
924183 785187 525
492969 875103 525
998506 111125 525
878946 832559 525
737607 462206 509
740204 782293 468
497105 600139 470
48707 975770 525
281748 967926 525
848187 359869 525
371150 750660 509
386522 637997 509
991915 360775 525
587889 462061 470
7460 103054 351
926114 513568 525
332686 539386 470
326803 77071 443
998533 972078 440
748354 444435 509
953971 801161 525
975511 830160 525
152425 583141 470
835493 284779 509
200156 57377 383
991240 743512 525
821147 84186 509
421875 771323 509
520795 182615 470
373087 657296 509
428489 222088 449
16269 661749 509
129210 850449 525
542798 360072 470
475073 752388 509
371902 84589 443
218157 616950 470
479147 512404 470
586954 711815 509
693315 519629 509
73348 358242 443
229258 208256 386
340216 555618 470
171939 606875 470
564849 809839 509
663494 288346 509
413916 608573 470
281871 320729 389
650718 496053 509
390579 685877 509
882066 488557 525
158019 328369 443
383235 443278 449
3430 97142 351
140262 849170 525
679324 628799 442
482072 12485 449
881553 480697 525
121200 565683 470
642459 170625 509
653197 529313 509
670654 990502 525
463375 614055 470
469183 349133 449
980365 768912 525
292732 717845 509
205425 495275 449
371923 238671 441
135934 770011 509
545833 388622 470
878192 639695 525
683066 109077 509
277989 139910 443
142752 9315 375
305411 983084 525
415669 216982 449
674497 355685 509
690192 615337 509
44297 581859 470
40707 815676 509
955167 78873 525
545007 422582 470
332599 141841 443
744511 848186 525
769684 884589 525
303647 796489 509
170722 257300 443
103618 538647 470
33099 883516 525
121003 57638 354
436699 261274 449
155407 869118 525
181587 552585 470
91671 457982 449
670075 91737 509
92282 128873 354
495578 728690 509
712495 290278 509
601409 75148 470
412214 781942 509
489996 45451 449
716439 91758 509
247332 870164 525
796838 188826 509
869590 618719 525
424353 541792 470
349243 917017 525
161328 171856 352
309397 704214 509
87426 852498 525
369595 276777 441
380533 617606 470
840184 39150 525
998068 369069 525
780087 10803 509
551913 109114 470
297932 495575 449
875633 496075 525
805383 70595 509
726624 250223 509
235295 929838 525
377050 256326 441
213111 288178 443
788218 308848 509
308828 448726 449
543337 803295 509
473526 75317 449
371382 45348 443
178476 770974 509
197266 823415 509
931530 676228 525
759833 348850 509
198537 47950 383
177109 365356 443
310769 195483 443
190184 62209 383
246591 48111 443
93293 139078 354
720875 245147 509
899351 18185 525
64264 724781 509
527577 928148 525
667893 368825 509
963365 451012 525
572059 712812 509
991209 569167 525
416191 417342 387
502238 466892 426
33507 82741 351
649057 746065 504
658831 59489 509
746617 363408 509
181361 978784 525
340818 12504 443
435351 145407 449
987852 692905 525
842980 83610 525
815339 470336 509
631033 293733 509
15700 542449 470
716410 723825 411
569024 359670 470
511332 887813 525
349435 872988 525
597990 556587 434
849929 692092 525
255627 530540 470
67820 934011 525
829007 915075 525
225568 844434 525
214629 411607 449
430082 262993 449
57831 493652 449
836667 535895 509
832868 436894 509
359676 72759 443
233981 883643 525
895708 275456 525
65588 687991 509
711705 628542 504
945278 243504 525
809902 864475 525
900509 679153 525
168386 646836 509
183669 912143 525
756428 389828 509
774398 832718 468
382881 853360 525
122664 4284 354
351928 508793 449
793292 772491 437
283986 56669 443
860415 361480 525
923494 25942 525
328377 210511 443
836437 711353 468
375124 164154 443
855284 976925 507
624318 994570 525
331837 250250 407
952288 755044 525
384687 667284 509
349301 412375 449
440629 413609 418
760734 88289 509
503509 855444 525
588603 162167 470
248068 305911 407
11998 569305 470
406396 743207 509
399282 294808 441
943473 168103 525
845683 675433 525
890670 420578 525
362619 44724 443
771920 456590 509
958793 529016 525
934773 386272 525
176768 667391 509
